fifo_tb.vcd
$date
	Sat Jun 13 17:41:08 2026
$end
$version
	Icarus Verilog
$end
$timescale
	1ps
$end
$scope module fifo_tb $end
$var wire 8 ! read_data [7:0] $end
$var wire 1 " full $end
$var wire 1 # empty $end
$var parameter 32 $ AWIDTH $end
$var parameter 35 % DEPTH $end
$var parameter 32 & DWIDTH $end
$var reg 8 ' rdata [7:0] $end
$var reg 1 ( read_clk $end
$var reg 1 ) read_enable $end
$var reg 1 * read_reset $end
$var reg 1 + write_clk $end
$var reg 8 , write_data [7:0] $end
$var reg 1 - write_enable $end
$var reg 1 . write_reset $end
$var integer 32 / fail_cnt [31:0] $end
$var integer 32 0 i [31:0] $end
$var integer 32 1 pass_cnt [31:0] $end
$var integer 32 2 q_head [31:0] $end
$var integer 32 3 q_tail [31:0] $end
$scope module DUT $end
$var wire 1 ( read_clk $end
$var wire 1 ) read_enable $end
$var wire 1 * read_reset $end
$var wire 1 + write_clk $end
$var wire 8 4 write_data [7:0] $end
$var wire 1 - write_enable $end
$var wire 1 . write_reset $end
$var wire 4 5 write_ptr_grey_sync [3:0] $end
$var wire 4 6 write_ptr_grey [3:0] $end
$var wire 3 7 write_address [2:0] $end
$var wire 4 8 read_ptr_grey_sync [3:0] $end
$var wire 4 9 read_ptr_grey [3:0] $end
$var wire 8 : read_data [7:0] $end
$var wire 3 ; read_address [2:0] $end
$var wire 1 " full $end
$var wire 1 # empty $end
$var parameter 32 < Addresswidth $end
$var parameter 32 = Datawidth $end
$var parameter 35 > depth $end
$scope module I1 $end
$var wire 1 + write_clk $end
$var wire 1 . write_reset $end
$var wire 4 ? t1 [3:0] $end
$var wire 4 @ read_ptr_grey_sync [3:0] $end
$var wire 4 A read_ptr_grey [3:0] $end
$var parameter 32 B Addresswidth $end
$scope module S1 $end
$var wire 1 + clk $end
$var wire 4 C q [3:0] $end
$var wire 1 . reset $end
$var wire 4 D d [3:0] $end
$var parameter 32 E Addresswidth $end
$var reg 4 F q_reg [3:0] $end
$upscope $end
$scope module S2 $end
$var wire 1 + clk $end
$var wire 4 G d [3:0] $end
$var wire 4 H q [3:0] $end
$var wire 1 . reset $end
$var parameter 32 I Addresswidth $end
$var reg 4 J q_reg [3:0] $end
$upscope $end
$upscope $end
$scope module I2 $end
$var wire 4 K read_ptr_grey_sync [3:0] $end
$var wire 1 + write_clk $end
$var wire 1 - write_enable $end
$var wire 1 L write_inc $end
$var wire 1 . write_reset $end
$var wire 4 M write_ptr_next [3:0] $end
$var wire 4 N write_ptr_grey_next [3:0] $end
$var wire 4 O write_ptr_grey [3:0] $end
$var wire 3 P write_address [2:0] $end
$var wire 1 " full $end
$var parameter 32 Q Addresswidth $end
$var reg 1 " full_reg $end
$var reg 4 R write_ptr [3:0] $end
$scope module W1 $end
$var wire 4 S binary [3:0] $end
$var wire 4 T grey [3:0] $end
$var parameter 32 U Addresswidth $end
$upscope $end
$scope module W2 $end
$var wire 4 V binary [3:0] $end
$var wire 4 W grey [3:0] $end
$var parameter 32 X Addresswidth $end
$upscope $end
$upscope $end
$scope module I3 $end
$var wire 1 ( read_clk $end
$var wire 1 * read_reset $end
$var wire 4 Y write_ptr_grey [3:0] $end
$var wire 4 Z write_ptr_grey_sync [3:0] $end
$var wire 4 [ t1 [3:0] $end
$var parameter 32 \ Addresswidth $end
$scope module S1 $end
$var wire 1 ( clk $end
$var wire 4 ] d [3:0] $end
$var wire 4 ^ q [3:0] $end
$var wire 1 * reset $end
$var parameter 32 _ Addresswidth $end
$var reg 4 ` q_reg [3:0] $end
$upscope $end
$scope module S2 $end
$var wire 1 ( clk $end
$var wire 4 a d [3:0] $end
$var wire 4 b q [3:0] $end
$var wire 1 * reset $end
$var parameter 32 c Addresswidth $end
$var reg 4 d q_reg [3:0] $end
$upscope $end
$upscope $end
$scope module I4 $end
$var wire 1 ( read_clk $end
$var wire 1 ) read_enable $end
$var wire 1 e read_inc $end
$var wire 1 * read_reset $end
$var wire 4 f write_ptr_grey_sync [3:0] $end
$var wire 4 g read_ptr_next [3:0] $end
$var wire 4 h read_ptr_grey_next [3:0] $end
$var wire 4 i read_ptr_grey [3:0] $end
$var wire 3 j read_address [2:0] $end
$var wire 1 # empty $end
$var parameter 32 k Addresswidth $end
$var reg 1 # empty_reg $end
$var reg 4 l read_ptr [3:0] $end
$scope module R1 $end
$var wire 4 m binary [3:0] $end
$var wire 4 n grey [3:0] $end
$var parameter 32 o Addresswidth $end
$upscope $end
$scope module R2 $end
$var wire 4 p binary [3:0] $end
$var wire 4 q grey [3:0] $end
$var parameter 32 r Addresswidth $end
$upscope $end
$upscope $end
$scope module I5 $end
$var wire 1 " full $end
$var wire 3 s read_address [2:0] $end
$var wire 1 ( read_clk $end
$var wire 8 t read_data [7:0] $end
$var wire 1 ) read_enable $end
$var wire 3 u write_address [2:0] $end
$var wire 1 + write_clk $end
$var wire 8 v write_data [7:0] $end
$var wire 1 - write_enable $end
$var parameter 32 w Addresswidth $end
$var parameter 32 x Datawidth $end
$var parameter 35 y depth $end
$var reg 8 z read_data_reg [7:0] $end
$upscope $end
$upscope $end
$scope begin fast_reader $end
$upscope $end
$scope begin fast_writer $end
$upscope $end
$scope begin slow_reader $end
$upscope $end
$scope begin slow_writer $end
$upscope $end
$scope task apply_reset $end
$upscope $end
$scope task assert_eq $end
$var reg 8 { exp [7:0] $end
$var reg 8 | got [7:0] $end
$var reg 512 } msg [511:0] $end
$upscope $end
$scope task assert_flag $end
$var reg 1 ~ exp $end
$var reg 1 !" got $end
$var reg 512 "" msg [511:0] $end
$upscope $end
$scope task check_read $end
$var reg 8 #" actual [7:0] $end
$var reg 64 $" test_id [63:0] $end
$upscope $end
$scope task push_ref $end
$var reg 8 %" d [7:0] $end
$upscope $end
$scope task rclk_delay $end
$var integer 32 &" i [31:0] $end
$var integer 32 '" n [31:0] $end
$upscope $end
$scope task read_one $end
$var reg 8 (" out [7:0] $end
$upscope $end
$scope task wclk_delay $end
$var integer 32 )" i [31:0] $end
$var integer 32 *" n [31:0] $end
$upscope $end
$scope task write_one $end
$var reg 8 +" d [7:0] $end
$upscope $end
$upscope $end
$enddefinitions $end
$comment Show the parameter values. $end
$dumpall
b1000 y
b1000 x
b11 w
b11 r
b11 o
b11 k
b11 c
b11 _
b11 \
b11 X
b11 U
b11 Q
b11 I
b11 E
b11 B
b1000 >
b1000 =
b11 <
b1000 &
b1000 %
b11 $
$end
#0
$dumpvars
bx +"
bx *"
bx )"
bx ("
bx '"
bx &"
bx %"
bx $"
bx #"
bx ""
x!"
x~
bx }
bx |
bx {
bx z
b0 v
b0 u
bx t
b0 s
b0 q
b0 p
b0 n
b0 m
b0 l
b0 j
b0 i
b0 h
b0 g
b0 f
0e
b0 d
b0 b
b0 a
b0 `
b0 ^
b0 ]
b0 [
b0 Z
b0 Y
b0 W
b0 V
b0 T
b0 S
b0 R
b0 P
b0 O
b0 N
b0 M
0L
b0 K
b0 J
b0 H
b0 G
b0 F
b0 D
b0 C
b0 A
b0 @
b0 ?
b0 ;
bx :
b0 9
b0 8
b0 7
b0 6
b0 5
b0 4
b0 3
b0 2
b0 1
bx 0
b0 /
1.
0-
b0 ,
0+
1*
0)
0(
bx '
1#
0"
bx !
$end
#3500
1(
#5000
1+
#7000
0(
#10000
0+
#10500
1(
#14000
0(
#15000
1+
#17500
1(
#20000
0+
#21000
0(
#24500
1(
#25000
1+
#28000
0(
#30000
0+
#31500
1(
#35000
0(
1+
#38500
1(
#40000
0+
#42000
0(
#45000
1+
#45500
1(
#49000
0(
#50000
0+
#52500
1(
#55000
1+
#56000
0(
#59500
1(
#60000
0.
0+
#63000
0*
0(
#65000
1+
#66500
1(
#70000
0(
0+
#73500
1(
#75000
1+
#77000
0(
#80000
0+
#80500
1(
#84000
0(
#85000
1+
#87500
1(
#90000
0+
#91000
0(
#94500
1(
#95000
1+
#98000
0(
#100000
0+
#101500
1(
#105000
0(
1+
#108500
1(
#110000
0+
#112000
0(
#115000
1+
#115500
1(
#119000
0(
#120000
0+
#122500
1(
#125000
1+
#126000
0(
#129500
1(
#130000
0+
#133000
0(
#135000
1+
#136500
1(
#140000
0(
0+
#143500
1(
#145000
1+
#147000
0(
#150000
0+
#150500
b10 1
b110111001101111011101000010000001100110011101010110110001101100001000000110000101100110011101000110010101110010001000000111001001100101011100110110010101110100 ""
0~
0!"
1(
#154000
1)
0(
#155000
1+
#157500
1(
#158500
b0 &"
b100 '"
0)
#160000
0+
#161000
0(
#164500
b1 &"
1(
#165000
1+
#168000
0(
#170000
0+
#171500
b10 &"
1(
#175000
0(
1+
#178500
b11 &"
1(
#180000
0+
#182000
0(
#185000
1+
#185500
b10100101 +"
b11 1
b1110011011101000110100101101100011011000010000001100101011011010111000001110100011110010010000001100001011001100111010001100101011100100010000001110011011100000111010101110010011010010110111101110101011100110010000001110010011001010110000101100100 ""
1~
1!"
b100 &"
1(
#189000
0(
#190000
b1 N
b1 W
b1 M
b1 V
1L
1-
b10100101 ,
b10100101 4
b10100101 v
0+
#192500
1(
#195000
b11 N
b11 W
b1 7
b1 P
b1 u
b1 6
b1 O
b1 T
b1 Y
b1 ]
b10 M
b10 V
b1 R
b1 S
1+
#196000
b1 N
b1 W
b1 M
b1 V
0L
b0 &"
b110 '"
b1 3
b10100101 %"
0-
0(
#199500
b1 [
b1 ^
b1 a
b1 `
b1 &"
1(
#200000
0+
#203000
0(
#205000
1+
#206500
b1 5
b1 Z
b1 b
b1 f
b1 d
b10 &"
1(
#210000
0(
0+
#213500
0#
b11 &"
1(
#215000
1+
#217000
0(
#220000
0+
#220500
b100 &"
1(
#224000
0(
#225000
1+
#227500
b101 &"
1(
#230000
0+
#231000
0(
#234500
b100 1
b110111001101111011101000010000001100101011011010111000001110100011110010010000001100001011001100111010001100101011100100010000000110001001000000111011101110010011010010111010001100101 ""
0~
0!"
b110 &"
1(
#235000
1+
#238000
b1 h
b1 q
b1 g
b1 p
1e
1)
0(
#240000
0+
#241500
0e
b1 h
b1 q
b1 ;
b1 j
b1 s
b1 9
b1 A
b1 D
b1 i
b1 n
1#
b1 g
b1 p
b1 l
b1 m
b10100101 !
b10100101 :
b10100101 t
b10100101 z
1(
#242500
b0 &"
b10100101 '
0)
b10100101 ("
#245000
b1 ?
b1 C
b1 G
b1 F
0(
1+
#248500
b1 &"
1(
#250000
0+
#252000
0(
#255000
b1 8
b1 @
b1 H
b1 K
b1 J
1+
#255500
b10 &"
1(
#259000
0(
#260000
0+
#262500
b11 &"
1(
#265000
1+
#266000
0(
#269500
b100 &"
1(
#270000
0+
#273000
0(
#275000
1+
#276500
b101 &"
1(
#280000
0(
0+
#283500
b0 +"
b0 0
b101 1
b110010101101101011100000111010001111001001000000110000101100110011101000110010101110010001000000111001001100101011000010110010001101001011011100110011100100000011000100110000101100011011010110010000000110001001000000110010101101110011101000111001001111001 ""
1~
1!"
b1 2
b11 $"
b10100101 #"
b110 &"
1(
#285000
1+
#287000
0(
#290000
b11 N
b11 W
b10 M
b10 V
1L
1-
b0 ,
b0 4
b0 v
0+
#290500
1(
#294000
0(
#295000
b10 N
b10 W
b10 7
b10 P
b10 u
b11 6
b11 O
b11 T
b11 Y
b11 ]
b11 M
b11 V
b10 R
b10 S
1+
#296000
b11 N
b11 W
b10 M
b10 V
0L
b1 +"
b1 0
b10 3
b0 %"
0-
#297500
b11 [
b11 ^
b11 a
b11 `
1(
#300000
b10 N
b10 W
b11 M
b11 V
1L
1-
b1 ,
b1 4
b1 v
0+
#301000
0(
#304500
b11 5
b11 Z
b11 b
b11 f
b11 d
1(
#305000
b110 N
b110 W
b11 7
b11 P
b11 u
b10 6
b10 O
b10 T
b10 Y
b10 ]
b100 M
b100 V
b11 R
b11 S
1+
#306000
b10 N
b10 W
b11 M
b11 V
0L
b10 +"
b10 0
b11 3
b1 %"
0-
#308000
0(
#310000
b110 N
b110 W
b100 M
b100 V
1L
1-
b10 ,
b10 4
b10 v
0+
#311500
0#
b10 [
b10 ^
b10 a
b10 `
1(
#315000
b111 N
b111 W
b100 7
b100 P
b100 u
b110 6
b110 O
b110 T
b110 Y
b110 ]
b101 M
b101 V
b100 R
b100 S
0(
1+
#316000
b110 N
b110 W
b100 M
b100 V
0L
b11 +"
b11 0
b100 3
b10 %"
0-
#318500
b110 [
b110 ^
b110 a
b110 `
b10 5
b10 Z
b10 b
b10 f
b10 d
1(
#320000
b111 N
b111 W
b101 M
b101 V
1L
1-
b11 ,
b11 4
b11 v
0+
#322000
0(
#325000
b101 N
b101 W
b101 7
b101 P
b101 u
b111 6
b111 O
b111 T
b111 Y
b111 ]
b110 M
b110 V
b101 R
b101 S
1+
#325500
b110 5
b110 Z
b110 b
b110 f
b110 d
b111 [
b111 ^
b111 a
b111 `
1(
#326000
b111 N
b111 W
b101 M
b101 V
0L
b100 +"
b100 0
b101 3
b11 %"
0-
#329000
0(
#330000
b101 N
b101 W
b110 M
b110 V
1L
1-
b100 ,
b100 4
b100 v
0+
#332500
b111 5
b111 Z
b111 b
b111 f
b111 d
1(
#335000
b100 N
b100 W
b110 7
b110 P
b110 u
b101 6
b101 O
b101 T
b101 Y
b101 ]
b111 M
b111 V
b110 R
b110 S
1+
#336000
b101 N
b101 W
b110 M
b110 V
0L
b101 +"
b101 0
b110 3
b100 %"
0-
0(
#339500
b101 [
b101 ^
b101 a
b101 `
1(
#340000
b100 N
b100 W
b111 M
b111 V
1L
1-
b101 ,
b101 4
b101 v
0+
#343000
0(
#345000
b1100 N
b1100 W
b111 7
b111 P
b111 u
b100 6
b100 O
b100 T
b100 Y
b100 ]
b1000 M
b1000 V
b111 R
b111 S
1+
#346000
b100 N
b100 W
b111 M
b111 V
0L
b110 +"
b110 0
b111 3
b101 %"
0-
#346500
b100 [
b100 ^
b100 a
b100 `
b101 5
b101 Z
b101 b
b101 f
b101 d
1(
#350000
b1100 N
b1100 W
b1000 M
b1000 V
1L
1-
b110 ,
b110 4
b110 v
0(
0+
#353500
b100 5
b100 Z
b100 b
b100 f
b100 d
1(
#355000
b1101 N
b1101 W
b0 7
b0 P
b0 u
b1100 6
b1100 O
b1100 T
b1100 Y
b1100 ]
b1001 M
b1001 V
b1000 R
b1000 S
1+
#356000
b1100 N
b1100 W
b1000 M
b1000 V
0L
b111 +"
b111 0
b1000 3
b110 %"
0-
#357000
0(
#360000
b1101 N
b1101 W
b1001 M
b1001 V
1L
1-
b111 ,
b111 4
b111 v
0+
#360500
b1100 [
b1100 ^
b1100 a
b1100 `
1(
#364000
0(
#365000
0L
b1101 N
b1101 W
b1 7
b1 P
b1 u
b1101 6
b1101 O
b1101 T
b1101 Y
b1101 ]
1"
b1001 M
b1001 V
b1001 R
b1001 S
1+
#366000
b0 )"
b1000 *"
b1000 0
b1001 3
b111 %"
0-
#367500
b1100 5
b1100 Z
b1100 b
b1100 f
b1100 d
b1101 [
b1101 ^
b1101 a
b1101 `
1(
#370000
0+
#371000
0(
#374500
b1101 5
b1101 Z
b1101 b
b1101 f
b1101 d
1(
#375000
b1 )"
1+
#378000
0(
#380000
0+
#381500
1(
#385000
b10 )"
0(
1+
#388500
1(
#390000
0+
#392000
0(
#395000
b11 )"
1+
#395500
1(
#399000
0(
#400000
0+
#402500
1(
#405000
b100 )"
1+
#406000
0(
#409500
1(
#410000
0+
#413000
0(
#415000
b101 )"
1+
#416500
1(
#420000
0(
0+
#423500
1(
#425000
b110 )"
1+
#427000
0(
#430000
0+
#430500
1(
#434000
0(
#435000
b111 )"
1+
#437500
1(
#440000
0+
#441000
0(
#444500
1(
#445000
b110 1
b110011001110101011011000110110000100000011000010110011001110100011001010111001000100000011101110111001001101001011101000110100101101110011001110010000001000100010001010101000001010100010010000010000001100101011011100111010001110010011010010110010101110011 ""
b1000 )"
1+
#448000
0(
#450000
1-
b11111111 ,
b11111111 4
b11111111 v
0+
#451500
1(
#455000
0(
1+
#456000
b0 )"
b100 *"
0-
#458500
1(
#460000
0+
#462000
0(
#465000
b1 )"
1+
#465500
1(
#469000
0(
#470000
0+
#472500
1(
#475000
b10 )"
1+
#476000
0(
#479500
1(
#480000
0+
#483000
0(
#485000
b11 )"
1+
#486500
1(
#490000
0(
0+
#493500
1(
#495000
b0 0
b111 1
b11100110111010001101001011011000110110000100000011001100111010101101100011011000010000001100001011001100111010001100101011100100010000001110111011100100110100101110100011001010010000001100001011101000111010001100101011011010111000001110100 ""
b100 )"
1+
#497000
b11 h
b11 q
b10 g
b10 p
1e
1)
0(
#500000
0+
#500500
b10 h
b10 q
b10 ;
b10 j
b10 s
b11 9
b11 A
b11 D
b11 i
b11 n
b11 g
b11 p
b10 l
b10 m
b0 !
b0 :
b0 t
b0 z
1(
#501500
b11 h
b11 q
b10 g
b10 p
0e
b0 &"
b100 '"
b0 '
0)
b0 ("
#504000
0(
#505000
b11 ?
b11 C
b11 G
b11 F
1+
#507500
b1 &"
1(
#510000
0+
#511000
0(
#514500
b10 &"
1(
#515000
b11 8
b11 @
b11 H
b11 K
b11 J
1+
#518000
0(
#520000
0+
#521500
b11 &"
1(
#525000
0"
0(
1+
#528500
b1 0
b10 2
b110 $"
b0 #"
b100 &"
1(
#530000
0+
#532000
b10 h
b10 q
b11 g
b11 p
1e
1)
0(
#535000
1+
#535500
b110 h
b110 q
b11 ;
b11 j
b11 s
b10 9
b10 A
b10 D
b10 i
b10 n
b100 g
b100 p
b11 l
b11 m
b1 !
b1 :
b1 t
b1 z
1(
#536500
b10 h
b10 q
b11 g
b11 p
0e
b0 &"
b1 '
0)
b1 ("
#539000
0(
#540000
0+
#542500
b1 &"
1(
#545000
b10 ?
b10 C
b10 G
b10 F
1+
#546000
0(
#549500
b10 &"
1(
#550000
0+
#553000
0(
#555000
b10 8
b10 @
b10 H
b10 K
b10 J
1+
#556500
b11 &"
1(
#560000
0(
0+
#563500
b10 0
b11 2
b1 #"
b100 &"
1(
#565000
1+
#567000
b110 h
b110 q
b100 g
b100 p
1e
1)
0(
#570000
0+
#570500
b111 h
b111 q
b100 ;
b100 j
b100 s
b110 9
b110 A
b110 D
b110 i
b110 n
b101 g
b101 p
b100 l
b100 m
b10 !
b10 :
b10 t
b10 z
1(
#571500
b110 h
b110 q
b100 g
b100 p
0e
b0 &"
b10 '
0)
b10 ("
#574000
0(
#575000
b110 ?
b110 C
b110 G
b110 F
1+
#577500
b1 &"
1(
#580000
0+
#581000
0(
#584500
b10 &"
1(
#585000
b110 8
b110 @
b110 H
b110 K
b110 J
1+
#588000
0(
#590000
0+
#591500
b11 &"
1(
#595000
0(
1+
#598500
b11 0
b100 2
b10 #"
b100 &"
1(
#600000
0+
#602000
b111 h
b111 q
b101 g
b101 p
1e
1)
0(
#605000
1+
#605500
b101 h
b101 q
b101 ;
b101 j
b101 s
b111 9
b111 A
b111 D
b111 i
b111 n
b110 g
b110 p
b101 l
b101 m
b11 !
b11 :
b11 t
b11 z
1(
#606500
b111 h
b111 q
b101 g
b101 p
0e
b0 &"
b11 '
0)
b11 ("
#609000
0(
#610000
0+
#612500
b1 &"
1(
#615000
b111 ?
b111 C
b111 G
b111 F
1+
#616000
0(
#619500
b10 &"
1(
#620000
0+
#623000
0(
#625000
b111 8
b111 @
b111 H
b111 K
b111 J
1+
#626500
b11 &"
1(
#630000
0(
0+
#633500
b100 0
b101 2
b11 #"
b100 &"
1(
#635000
1+
#637000
b101 h
b101 q
b110 g
b110 p
1e
1)
0(
#640000
0+
#640500
b100 h
b100 q
b110 ;
b110 j
b110 s
b101 9
b101 A
b101 D
b101 i
b101 n
b111 g
b111 p
b110 l
b110 m
b100 !
b100 :
b100 t
b100 z
1(
#641500
b101 h
b101 q
b110 g
b110 p
0e
b0 &"
b100 '
0)
b100 ("
#644000
0(
#645000
b101 ?
b101 C
b101 G
b101 F
1+
#647500
b1 &"
1(
#650000
0+
#651000
0(
#654500
b10 &"
1(
#655000
b101 8
b101 @
b101 H
b101 K
b101 J
1+
#658000
0(
#660000
0+
#661500
b11 &"
1(
#665000
0(
1+
#668500
b101 0
b110 2
b100 #"
b100 &"
1(
#670000
0+
#672000
b100 h
b100 q
b111 g
b111 p
1e
1)
0(
#675000
1+
#675500
b1100 h
b1100 q
b111 ;
b111 j
b111 s
b100 9
b100 A
b100 D
b100 i
b100 n
b1000 g
b1000 p
b111 l
b111 m
b101 !
b101 :
b101 t
b101 z
1(
#676500
b100 h
b100 q
b111 g
b111 p
0e
b0 &"
b101 '
0)
b101 ("
#679000
0(
#680000
0+
#682500
b1 &"
1(
#685000
b100 ?
b100 C
b100 G
b100 F
1+
#686000
0(
#689500
b10 &"
1(
#690000
0+
#693000
0(
#695000
b100 8
b100 @
b100 H
b100 K
b100 J
1+
#696500
b11 &"
1(
#700000
0(
0+
#703500
b110 0
b111 2
b101 #"
b100 &"
1(
#705000
1+
#707000
b1100 h
b1100 q
b1000 g
b1000 p
1e
1)
0(
#710000
0+
#710500
b1101 h
b1101 q
b0 ;
b0 j
b0 s
b1100 9
b1100 A
b1100 D
b1100 i
b1100 n
b1001 g
b1001 p
b1000 l
b1000 m
b110 !
b110 :
b110 t
b110 z
1(
#711500
b1100 h
b1100 q
b1000 g
b1000 p
0e
b0 &"
b110 '
0)
b110 ("
#714000
0(
#715000
b1100 ?
b1100 C
b1100 G
b1100 F
1+
#717500
b1 &"
1(
#720000
0+
#721000
0(
#724500
b10 &"
1(
#725000
b1100 8
b1100 @
b1100 H
b1100 K
b1100 J
1+
#728000
0(
#730000
0+
#731500
b11 &"
1(
#735000
0(
1+
#738500
b111 0
b1000 2
b110 #"
b100 &"
1(
#740000
0+
#742000
b1101 h
b1101 q
b1001 g
b1001 p
1e
1)
0(
#745000
1+
#745500
0e
b1101 h
b1101 q
b1 ;
b1 j
b1 s
b1101 9
b1101 A
b1101 D
b1101 i
b1101 n
1#
b1001 g
b1001 p
b1001 l
b1001 m
b111 !
b111 :
b111 t
b111 z
1(
#746500
b0 &"
b111 '
0)
b111 ("
#749000
0(
#750000
0+
#752500
b1 &"
1(
#755000
b1101 ?
b1101 C
b1101 G
b1101 F
1+
#756000
0(
#759500
b10 &"
1(
#760000
0+
#763000
0(
#765000
b1101 8
b1101 @
b1101 H
b1101 K
b1101 J
1+
#766500
b11 &"
1(
#770000
0(
0+
#773500
b1000 '"
b1000 0
b1001 2
b111 #"
b0 &"
1(
#775000
1+
#777000
0(
#780000
0+
#780500
b1 &"
1(
#784000
0(
#785000
1+
#787500
b10 &"
1(
#790000
0+
#791000
0(
#794500
b11 &"
1(
#795000
1+
#798000
0(
#800000
0+
#801500
b100 &"
1(
#805000
0(
1+
#808500
b101 &"
1(
#810000
0+
#812000
0(
#815000
1+
#815500
b110 &"
1(
#819000
0(
#820000
0+
#822500
b111 &"
1(
#825000
1+
#826000
0(
#829500
b10000 +"
b0 0
b1000 1
b110010101101101011100000111010001111001001000000110000101100110011101000110010101110010001000000110010001110010011000010110100101101110011010010110111001100111001000000110000101101100011011000010000001100101011011100111010001110010011010010110010101110011 ""
b1000 &"
1(
#830000
b1111 N
b1111 W
b1010 M
b1010 V
1L
1-
b10000 ,
b10000 4
b10000 v
0+
#833000
0(
#835000
b1110 N
b1110 W
b10 7
b10 P
b10 u
b1111 6
b1111 O
b1111 T
b1111 Y
b1111 ]
b1011 M
b1011 V
b1010 R
b1010 S
1+
#836000
b1111 N
b1111 W
b1010 M
b1010 V
0L
b10001 +"
b1 0
b1010 3
b10000 %"
0-
#836500
b1111 [
b1111 ^
b1111 a
b1111 `
1(
#840000
b1110 N
b1110 W
b1011 M
b1011 V
1L
1-
b10001 ,
b10001 4
b10001 v
0(
0+
#843500
b1111 5
b1111 Z
b1111 b
b1111 f
b1111 d
1(
#845000
b1010 N
b1010 W
b11 7
b11 P
b11 u
b1110 6
b1110 O
b1110 T
b1110 Y
b1110 ]
b1100 M
b1100 V
b1011 R
b1011 S
1+
#846000
b1110 N
b1110 W
b1011 M
b1011 V
0L
b10010 +"
b10 0
b1011 3
b10001 %"
0-
#847000
0(
#850000
b1010 N
b1010 W
b1100 M
b1100 V
1L
1-
b10010 ,
b10010 4
b10010 v
0+
#850500
b1110 [
b1110 ^
b1110 a
b1110 `
0#
1(
#854000
0(
#855000
b1011 N
b1011 W
b100 7
b100 P
b100 u
b1010 6
b1010 O
b1010 T
b1010 Y
b1010 ]
b1101 M
b1101 V
b1100 R
b1100 S
1+
#856000
b1010 N
b1010 W
b1100 M
b1100 V
0L
b10011 +"
b11 0
b1100 3
b10010 %"
0-
#857500
b1110 5
b1110 Z
b1110 b
b1110 f
b1110 d
b1010 [
b1010 ^
b1010 a
b1010 `
1(
#860000
b1011 N
b1011 W
b1101 M
b1101 V
1L
1-
b10011 ,
b10011 4
b10011 v
0+
#861000
0(
#864500
b1010 5
b1010 Z
b1010 b
b1010 f
b1010 d
1(
#865000
b1001 N
b1001 W
b101 7
b101 P
b101 u
b1011 6
b1011 O
b1011 T
b1011 Y
b1011 ]
b1110 M
b1110 V
b1101 R
b1101 S
1+
#866000
b1011 N
b1011 W
b1101 M
b1101 V
0L
b0 &"
b110 '"
b100 0
b1101 3
b10011 %"
0-
#868000
0(
#870000
0+
#871500
b1011 [
b1011 ^
b1011 a
b1011 `
b1 &"
1(
#875000
0(
1+
#878500
b1011 5
b1011 Z
b1011 b
b1011 f
b1011 d
b10 &"
1(
#880000
0+
#882000
0(
#885000
1+
#885500
b11 &"
1(
#889000
0(
#890000
0+
#892500
b100 &"
1(
#895000
1+
#896000
0(
#899500
b101 &"
1(
#900000
0+
#903000
0(
#905000
1+
#906500
b110 &"
1(
#910000
b1111 h
b1111 q
b1001 N
b1001 W
b1010 g
b1010 p
1e
b1110 M
b1110 V
1L
1)
b1110 3
b100100 %"
1-
b100100 ,
b100100 4
b100100 v
0(
0+
#913500
b1110 h
b1110 q
b10 ;
b10 j
b10 s
b1111 9
b1111 A
b1111 D
b1111 i
b1111 n
b1011 g
b1011 p
b1010 l
b1010 m
b10000 !
b10000 :
b10000 t
b10000 z
1(
#914500
b1111 h
b1111 q
b1010 g
b1010 p
0e
b0 &"
b11 '"
b10000 '
0)
b10000 ("
#915000
b1000 N
b1000 W
b110 7
b110 P
b110 u
b1001 6
b1001 O
b1001 T
b1001 Y
b1001 ]
b1111 ?
b1111 C
b1111 G
b1111 F
b1111 M
b1111 V
b1110 R
b1110 S
1+
#916000
b1001 N
b1001 W
b1110 M
b1110 V
0L
b0 )"
b1 *"
0-
#917000
0(
#920000
0+
#920500
b1001 [
b1001 ^
b1001 a
b1001 `
b1 &"
1(
#924000
0(
#925000
b1111 8
b1111 @
b1111 H
b1111 K
b1111 J
b1 )"
1+
#927500
b1001 5
b1001 Z
b1001 b
b1001 f
b1001 d
b10 &"
1(
#930000
b1000 N
b1000 W
b1111 M
b1111 V
1L
b1111 3
b10000001 %"
1-
b10000001 ,
b10000001 4
b10000001 v
0+
#931000
0(
#934500
b1010 2
b111 $"
b10000 #"
b11 &"
1(
#935000
b0 N
b0 W
b111 7
b111 P
b111 u
b1000 6
b1000 O
b1000 T
b1000 Y
b1000 ]
b0 M
b0 V
b1111 R
b1111 S
1+
#936000
b1000 N
b1000 W
b1111 M
b1111 V
0L
b0 )"
0-
#938000
b1110 h
b1110 q
b1011 g
b1011 p
1e
1)
0(
#940000
0+
#941500
b1010 h
b1010 q
b11 ;
b11 j
b11 s
b1110 9
b1110 A
b1110 D
b1110 i
b1110 n
b1100 g
b1100 p
b1011 l
b1011 m
b1000 [
b1000 ^
b1000 a
b1000 `
b10001 !
b10001 :
b10001 t
b10001 z
1(
#942500
b1110 h
b1110 q
b1011 g
b1011 p
0e
b0 &"
b10001 '
0)
b10001 ("
#945000
b1110 ?
b1110 C
b1110 G
b1110 F
b1 )"
0(
1+
#948500
b1000 5
b1000 Z
b1000 b
b1000 f
b1000 d
b1 &"
1(
#950000
b0 N
b0 W
b0 M
b0 V
1L
b10000 3
b1001 %"
1-
b1001 ,
b1001 4
b1001 v
0+
#952000
0(
#955000
b1 N
b1 W
b0 7
b0 P
b0 u
b0 6
b0 O
b0 T
b0 Y
b0 ]
b1110 8
b1110 @
b1110 H
b1110 K
b1110 J
b1 M
b1 V
b0 R
b0 S
1+
#955500
b0 [
b0 ^
b0 a
b0 `
b10 &"
1(
#956000
b0 N
b0 W
b0 M
b0 V
0L
b0 )"
0-
#959000
0(
#960000
0+
#962500
b0 5
b0 Z
b0 b
b0 f
b0 d
b1011 2
b10001 #"
b11 &"
1(
#965000
b1 )"
1+
#966000
b1010 h
b1010 q
b1100 g
b1100 p
1e
1)
0(
#969500
b1011 h
b1011 q
b100 ;
b100 j
b100 s
b1010 9
b1010 A
b1010 D
b1010 i
b1010 n
b1101 g
b1101 p
b1100 l
b1100 m
b10010 !
b10010 :
b10010 t
b10010 z
1(
#970000
b1 N
b1 W
b1 M
b1 V
1L
b10001 3
b1100011 %"
1-
b1100011 ,
b1100011 4
b1100011 v
0+
#970500
b1010 h
b1010 q
b1100 g
b1100 p
0e
b0 &"
b10010 '
0)
b10010 ("
#973000
0(
#975000
b11 N
b11 W
b1 7
b1 P
b1 u
b1 6
b1 O
b1 T
b1 Y
b1 ]
b1010 ?
b1010 C
b1010 G
b1010 F
b10 M
b10 V
b1 R
b1 S
1+
#976000
b1 N
b1 W
b1 M
b1 V
0L
b0 )"
0-
#976500
b1 [
b1 ^
b1 a
b1 `
b1 &"
1(
#980000
0(
0+
#983500
b1 5
b1 Z
b1 b
b1 f
b1 d
b10 &"
1(
#985000
b1010 8
b1010 @
b1010 H
b1010 K
b1010 J
b1 )"
1+
#987000
0(
#990000
0+
#990500
b1100 2
b10010 #"
b11 &"
1(
#994000
b1011 h
b1011 q
b1101 g
b1101 p
1e
1)
0(
#995000
1+
